{
  "name": "LBBW-Tripsheets",
  "short_name": "Tripsheets",
  "description": "LBBW Tripsheets",
  "start_url": "/",
  "theme_color": "#ffffff",
  "icons": [
    {
      "src": "/images/clubLogo-192x192.png",
      "sizes": "192x192",
      "type": "image/png"
    },
    {
      "src": "/images/clubLogo-512x512.png",
      "sizes": "512x512",
      "type": "image/png"
    }
  ]
}
